{
    "jab1": {
        "subactionIndex": 46,
        "subactionName": "PlyDrmario5K_Share_ACTION_Attack11_figatree",
        "totalFrames": 15,
        "iasa": null,
        "hitFrames": [
            {
                "start": 2,
                "end": 3,
                "hitboxes": [0, 1]
            }
        ],
        "hitboxes": [
            {
                "damage": 4,
                "angle": 83,
                "kbGrowth": 100,
                "weightDepKb": 30,
                "hitboxInteraction": 3,
                "baseKb": 0,
                "element": "normal",
                "shieldDamage": 0,
                "hitGrounded": true,
                "hitAirborne": true
            },
            {
                "damage": 4,
                "angle": 85,
                "kbGrowth": 100,
                "weightDepKb": 30,
                "hitboxInteraction": 3,
                "baseKb": 0,
                "element": "normal",
                "shieldDamage": 0,
                "hitGrounded": true,
                "hitAirborne": true
            }
        ]
    },
    "jab2": {
        "subactionIndex": 47,
        "subactionName": "PlyDrmario5K_Share_ACTION_Attack12_figatree",
        "totalFrames": 17,
        "iasa": null,
        "hitFrames": [
            {
                "start": 2,
                "end": 3,
                "hitboxes": [0, 1]
            }
        ],
        "hitboxes": [
            {
                "damage": 3,
                "angle": 83,
                "kbGrowth": 100,
                "weightDepKb": 30,
                "hitboxInteraction": 3,
                "baseKb": 0,
                "element": "normal",
                "shieldDamage": 0,
                "hitGrounded": true,
                "hitAirborne": true
            },
            {
                "damage": 3,
                "angle": 85,
                "kbGrowth": 100,
                "weightDepKb": 30,
                "hitboxInteraction": 3,
                "baseKb": 0,
                "element": "normal",
                "shieldDamage": 0,
                "hitGrounded": true,
                "hitAirborne": true
            }
        ]
    },
    "jab3": {
        "subactionIndex": 48,
        "subactionName": "PlyDrmario5K_Share_ACTION_Attack13_figatree",
        "totalFrames": 21,
        "iasa": null,
        "hitFrames": [
            {
                "start": 4,
                "end": 8,
                "hitboxes": [0]
            }
        ],
        "hitboxes": [
            {
                "damage": 6,
                "angle": 361,
                "kbGrowth": 100,
                "weightDepKb": 0,
                "hitboxInteraction": 3,
                "baseKb": 18,
                "element": "normal",
                "shieldDamage": 0,
                "hitGrounded": true,
                "hitAirborne": true
            }
        ]
    },
    "rapidjabs_start": null,
    "rapidjabs_loop": null,
    "rapidjabs_end": null,
    "dashattack": {
        "subactionIndex": 52,
        "subactionName": "PlyDrmario5K_Share_ACTION_AttackDash_figatree",
        "totalFrames": 43,
        "iasa": 38,
        "hitFrames": [
            {
                "start": 6,
                "end": 9,
                "hitboxes": [0]
            },
            {
                "start": 10,
                "end": 25,
                "hitboxes": [0, 1]
            }
        ],
        "hitboxes": [
            {
                "damage": 9,
                "angle": 80,
                "kbGrowth": 30,
                "weightDepKb": 0,
                "hitboxInteraction": 3,
                "baseKb": 70,
                "element": "normal",
                "shieldDamage": 1,
                "hitGrounded": true,
                "hitAirborne": true
            },
            {
                "damage": 8,
                "angle": 85,
                "kbGrowth": 50,
                "weightDepKb": 0,
                "hitboxInteraction": 3,
                "baseKb": 60,
                "element": "normal",
                "shieldDamage": 1,
                "hitGrounded": true,
                "hitAirborne": true
            }
        ]
    },
    "ftilt_h": {
        "subactionIndex": 53,
        "subactionName": "PlyDrmario5K_Share_ACTION_AttackS3Hi_figatree",
        "totalFrames": 29,
        "iasa": null,
        "hitFrames": [
            {
                "start": 4,
                "end": 8,
                "hitboxes": [0]
            }
        ],
        "hitboxes": [
            {
                "damage": 9,
                "angle": 361,
                "kbGrowth": 100,
                "weightDepKb": 0,
                "hitboxInteraction": 3,
                "baseKb": 11,
                "element": "normal",
                "shieldDamage": 0,
                "hitGrounded": true,
                "hitAirborne": true
            }
        ]
    },
    "ftilt_mh": null,
    "ftilt_m": {
        "subactionIndex": 55,
        "subactionName": "PlyDrmario5K_Share_ACTION_AttackS3S_figatree",
        "totalFrames": 29,
        "iasa": null,
        "hitFrames": [
            {
                "start": 4,
                "end": 8,
                "hitboxes": [0]
            }
        ],
        "hitboxes": [
            {
                "damage": 8,
                "angle": 361,
                "kbGrowth": 100,
                "weightDepKb": 0,
                "hitboxInteraction": 3,
                "baseKb": 10,
                "element": "normal",
                "shieldDamage": 0,
                "hitGrounded": true,
                "hitAirborne": true
            }
        ]
    },
    "ftilt_ml": null,
    "ftilt_l": {
        "subactionIndex": 57,
        "subactionName": "PlyDrmario5K_Share_ACTION_AttackS3Lw_figatree",
        "totalFrames": 29,
        "iasa": null,
        "hitFrames": [
            {
                "start": 4,
                "end": 8,
                "hitboxes": [0]
            }
        ],
        "hitboxes": [
            {
                "damage": 7,
                "angle": 361,
                "kbGrowth": 100,
                "weightDepKb": 0,
                "hitboxInteraction": 3,
                "baseKb": 9,
                "element": "normal",
                "shieldDamage": 0,
                "hitGrounded": true,
                "hitAirborne": true
            }
        ]
    },
    "utilt": {
        "subactionIndex": 58,
        "subactionName": "PlyDrmario5K_Share_ACTION_AttackHi3_figatree",
        "totalFrames": 30,
        "iasa": 30,
        "hitFrames": [
            {
                "start": 4,
                "end": 4,
                "hitboxes": [0]
            },
            {
                "start": 5,
                "end": 13,
                "hitboxes": [1, 2, 3]
            }
        ],
        "hitboxes": [
            {
                "damage": 10,
                "angle": 361,
                "kbGrowth": 95,
                "weightDepKb": 0,
                "hitboxInteraction": 3,
                "baseKb": 20,
                "element": "normal",
                "shieldDamage": 0,
                "hitGrounded": true,
                "hitAirborne": true
            },
            {
                "damage": 8,
                "angle": 100,
                "kbGrowth": 122,
                "weightDepKb": 0,
                "hitboxInteraction": 3,
                "baseKb": 30,
                "element": "normal",
                "shieldDamage": 0,
                "hitGrounded": true,
                "hitAirborne": true
            },
            {
                "damage": 8,
                "angle": 100,
                "kbGrowth": 120,
                "weightDepKb": 0,
                "hitboxInteraction": 3,
                "baseKb": 30,
                "element": "normal",
                "shieldDamage": 0,
                "hitGrounded": true,
                "hitAirborne": true
            },
            {
                "damage": 8,
                "angle": 100,
                "kbGrowth": 118,
                "weightDepKb": 0,
                "hitboxInteraction": 3,
                "baseKb": 30,
                "element": "normal",
                "shieldDamage": 0,
                "hitGrounded": true,
                "hitAirborne": true
            }
        ]
    },
    "dtilt": {
        "subactionIndex": 59,
        "subactionName": "PlyDrmario5K_Share_ACTION_AttackLw3_figatree",
        "totalFrames": 34,
        "iasa": null,
        "hitFrames": [
            {
                "start": 5,
                "end": 8,
                "hitboxes": [0]
            }
        ],
        "hitboxes": [
            {
                "damage": 9,
                "angle": 150,
                "kbGrowth": 82,
                "weightDepKb": 0,
                "hitboxInteraction": 3,
                "baseKb": 20,
                "element": "normal",
                "shieldDamage": 0,
                "hitGrounded": true,
                "hitAirborne": true
            }
        ]
    },
    "fsmash_h": {
        "subactionIndex": 60,
        "subactionName": "PlyDrmario5K_Share_ACTION_AttackS4Hi_figatree",
        "totalFrames": 41,
        "chargeFrame": 5,
        "iasa": null,
        "hitFrames": [
            {
                "start": 12,
                "end": 16,
                "hitboxes": [0]
            }
        ],
        "hitboxes": [
            {
                "damage": 20,
                "angle": 361,
                "kbGrowth": 97,
                "weightDepKb": 0,
                "hitboxInteraction": 3,
                "baseKb": 30,
                "element": "electric",
                "shieldDamage": 0,
                "hitGrounded": true,
                "hitAirborne": true
            }
        ]
    },
    "fsmash_mh": null,
    "fsmash_m": {
        "subactionIndex": 62,
        "subactionName": "PlyDrmario5K_Share_ACTION_AttackS4S_figatree",
        "totalFrames": 41,
        "chargeFrame": 5,
        "iasa": null,
        "hitFrames": [
            {
                "start": 12,
                "end": 16,
                "hitboxes": [0]
            }
        ],
        "hitboxes": [
            {
                "damage": 19,
                "angle": 361,
                "kbGrowth": 97,
                "weightDepKb": 0,
                "hitboxInteraction": 3,
                "baseKb": 30,
                "element": "electric",
                "shieldDamage": 0,
                "hitGrounded": true,
                "hitAirborne": true
            }
        ]
    },
    "fsmash_ml": null,
    "fsmash_l": {
        "subactionIndex": 64,
        "subactionName": "PlyDrmario5K_Share_ACTION_AttackS4Lw_figatree",
        "totalFrames": 41,
        "chargeFrame": 5,
        "iasa": null,
        "hitFrames": [
            {
                "start": 12,
                "end": 16,
                "hitboxes": [0]
            }
        ],
        "hitboxes": [
            {
                "damage": 18,
                "angle": 361,
                "kbGrowth": 97,
                "weightDepKb": 0,
                "hitboxInteraction": 3,
                "baseKb": 30,
                "element": "electric",
                "shieldDamage": 0,
                "hitGrounded": true,
                "hitAirborne": true
            }
        ]
    },
    "usmash": {
        "subactionIndex": 66,
        "subactionName": "PlyDrmario5K_Share_ACTION_AttackHi4_figatree",
        "totalFrames": 39,
        "chargeFrame": 7,
        "iasa": null,
        "hitFrames": [
            {
                "start": 9,
                "end": 10,
                "hitboxes": [0, 1]
            },
            {
                "start": 11,
                "end": 11,
                "hitboxes": [2, 3]
            }
        ],
        "hitboxes": [
            {
                "damage": 16,
                "angle": 83,
                "kbGrowth": 95,
                "weightDepKb": 0,
                "hitboxInteraction": 3,
                "baseKb": 35,
                "element": "normal",
                "shieldDamage": 0,
                "hitGrounded": false,
                "hitAirborne": true
            },
            {
                "damage": 16,
                "angle": 259,
                "kbGrowth": 95,
                "weightDepKb": 0,
                "hitboxInteraction": 3,
                "baseKb": 35,
                "element": "normal",
                "shieldDamage": 0,
                "hitGrounded": true,
                "hitAirborne": false
            },
            {
                "damage": 13,
                "angle": 76,
                "kbGrowth": 95,
                "weightDepKb": 0,
                "hitboxInteraction": 3,
                "baseKb": 35,
                "element": "normal",
                "shieldDamage": 0,
                "hitGrounded": false,
                "hitAirborne": true
            },
            {
                "damage": 13,
                "angle": 259,
                "kbGrowth": 95,
                "weightDepKb": 0,
                "hitboxInteraction": 3,
                "baseKb": 35,
                "element": "normal",
                "shieldDamage": 0,
                "hitGrounded": true,
                "hitAirborne": false
            }
        ]
    },
    "dsmash": {
        "subactionIndex": 67,
        "subactionName": "PlyDrmario5K_Share_ACTION_AttackLw4_figatree",
        "totalFrames": 37,
        "chargeFrame": 3,
        "iasa": null,
        "hitFrames": [
            {
                "start": 5,
                "end": 6,
                "hitboxes": [0, 1]
            },
            {
                "start": 14,
                "end": 15,
                "hitboxes": [2, 3]
            }
        ],
        "hitboxes": [
            {
                "damage": 18,
                "angle": 361,
                "kbGrowth": 75,
                "weightDepKb": 0,
                "hitboxInteraction": 3,
                "baseKb": 45,
                "element": "normal",
                "shieldDamage": 0,
                "hitGrounded": true,
                "hitAirborne": true
            },
            {
                "damage": 17,
                "angle": 361,
                "kbGrowth": 75,
                "weightDepKb": 0,
                "hitboxInteraction": 3,
                "baseKb": 45,
                "element": "normal",
                "shieldDamage": 0,
                "hitGrounded": true,
                "hitAirborne": true
            },
            {
                "damage": 15,
                "angle": 361,
                "kbGrowth": 75,
                "weightDepKb": 0,
                "hitboxInteraction": 3,
                "baseKb": 40,
                "element": "normal",
                "shieldDamage": 0,
                "hitGrounded": true,
                "hitAirborne": true
            },
            {
                "damage": 13,
                "angle": 361,
                "kbGrowth": 75,
                "weightDepKb": 0,
                "hitboxInteraction": 3,
                "baseKb": 40,
                "element": "normal",
                "shieldDamage": 0,
                "hitGrounded": true,
                "hitAirborne": true
            }
        ]
    },
    "nair": {
        "subactionIndex": 68,
        "subactionName": "PlyDrmario5K_Share_ACTION_AttackAirN_figatree",
        "totalFrames": 45,
        "iasa": null,
        "autoCancelBefore": 3,
        "autoCancelAfter": 35,
        "landingLag": 18,
        "lcancelledLandingLag": 9,
        "hitFrames": [
            {
                "start": 3,
                "end": 19,
                "hitboxes": [0]
            },
            {
                "start": 20,
                "end": 31,
                "hitboxes": [1]
            }
        ],
        "hitboxes": [
            {
                "damage": 10,
                "angle": 50,
                "kbGrowth": 100,
                "weightDepKb": 0,
                "hitboxInteraction": 3,
                "baseKb": 20,
                "element": "normal",
                "shieldDamage": 0,
                "hitGrounded": true,
                "hitAirborne": true
            },
            {
                "damage": 14,
                "angle": 361,
                "kbGrowth": 100,
                "weightDepKb": 0,
                "hitboxInteraction": 3,
                "baseKb": 20,
                "element": "normal",
                "shieldDamage": 0,
                "hitGrounded": true,
                "hitAirborne": true
            }
        ]
    },
    "fair": {
        "subactionIndex": 69,
        "subactionName": "PlyDrmario5K_Share_ACTION_AttackAirF_figatree",
        "totalFrames": 74,
        "iasa": 60,
        "autoCancelBefore": 3,
        "autoCancelAfter": 42,
        "landingLag": 25,
        "lcancelledLandingLag": 12,
        "hitFrames": [
            {
                "start": 18,
                "end": 22,
                "hitboxes": [0, 1]
            }
        ],
        "hitboxes": [
            {
                "damage": 17,
                "angle": 60,
                "kbGrowth": 100,
                "weightDepKb": 0,
                "hitboxInteraction": 3,
                "baseKb": 50,
                "element": "normal",
                "shieldDamage": 0,
                "hitGrounded": true,
                "hitAirborne": true
            },
            {
                "damage": 16,
                "angle": 60,
                "kbGrowth": 100,
                "weightDepKb": 0,
                "hitboxInteraction": 3,
                "baseKb": 40,
                "element": "normal",
                "shieldDamage": 0,
                "hitGrounded": true,
                "hitAirborne": true
            }
        ]
    },
    "bair": {
        "subactionIndex": 70,
        "subactionName": "PlyDrmario5K_Share_ACTION_AttackAirB_figatree",
        "totalFrames": 28,
        "iasa": null,
        "autoCancelBefore": 6,
        "autoCancelAfter": 18,
        "landingLag": 18,
        "lcancelledLandingLag": 9,
        "hitFrames": [
            {
                "start": 6,
                "end": 8,
                "hitboxes": [0]
            },
            {
                "start": 9,
                "end": 16,
                "hitboxes": [1]
            }
        ],
        "hitboxes": [
            {
                "damage": 8,
                "angle": 28,
                "kbGrowth": 65,
                "weightDepKb": 0,
                "hitboxInteraction": 3,
                "baseKb": 43,
                "element": "normal",
                "shieldDamage": 0,
                "hitGrounded": true,
                "hitAirborne": true
            },
            {
                "damage": 7,
                "angle": 361,
                "kbGrowth": 100,
                "weightDepKb": 0,
                "hitboxInteraction": 3,
                "baseKb": 20,
                "element": "normal",
                "shieldDamage": 0,
                "hitGrounded": true,
                "hitAirborne": true
            }
        ]
    },
    "uair": {
        "subactionIndex": 71,
        "subactionName": "PlyDrmario5K_Share_ACTION_AttackAirHi_figatree",
        "totalFrames": 33,
        "iasa": 30,
        "autoCancelBefore": 2,
        "autoCancelAfter": 15,
        "landingLag": 18,
        "lcancelledLandingLag": 9,
        "hitFrames": [
            {
                "start": 4,
                "end": 9,
                "hitboxes": [0]
            }
        ],
        "hitboxes": [
            {
                "damage": 10,
                "angle": 55,
                "kbGrowth": 100,
                "weightDepKb": 0,
                "hitboxInteraction": 3,
                "baseKb": 0,
                "element": "normal",
                "shieldDamage": 0,
                "hitGrounded": true,
                "hitAirborne": true
            }
        ]
    },
    "dair": {
        "subactionIndex": 72,
        "subactionName": "PlyDrmario5K_Share_ACTION_AttackAirLw_figatree",
        "totalFrames": 38,
        "iasa": 38,
        "autoCancelBefore": 6,
        "autoCancelAfter": 35,
        "landingLag": 24,
        "lcancelledLandingLag": 12,
        "hitFrames": [
            {
                "start": 10,
                "end": 11,
                "hitboxes": [0]
            },
            {
                "start": 13,
                "end": 14,
                "hitboxes": [0]
            },
            {
                "start": 16,
                "end": 17,
                "hitboxes": [0]
            },
            {
                "start": 19,
                "end": 20,
                "hitboxes": [0]
            },
            {
                "start": 22,
                "end": 23,
                "hitboxes": [0]
            },
            {
                "start": 25,
                "end": 26,
                "hitboxes": [0]
            },
            {
                "start": 28,
                "end": 29,
                "hitboxes": [0]
            },
            {
                "start": 31,
                "end": 32,
                "hitboxes": [0]
            }
        ],
        "hitboxes": [
            {
                "damage": 3,
                "angle": 80,
                "kbGrowth": 100,
                "weightDepKb": 30,
                "hitboxInteraction": 3,
                "baseKb": 0,
                "element": "normal",
                "shieldDamage": 0,
                "hitGrounded": true,
                "hitAirborne": true
            }
        ]
    },
    "grab": {
        "subactionIndex": 242,
        "subactionName": "PlyDrmario5K_Share_ACTION_Catch_figatree",
        "totalFrames": 29,
        "iasa": null,
        "hitFrames": [
            {
                "start": 6,
                "end": 7,
                "hitboxes": [0]
            }
        ],
        "hitboxes": [
            {
                "damage": 0,
                "angle": 361,
                "kbGrowth": 100,
                "weightDepKb": 0,
                "hitboxInteraction": 2,
                "baseKb": 0,
                "element": "grab",
                "shieldDamage": 0,
                "hitGrounded": true,
                "hitAirborne": true
            }
        ]
    },
    "dashgrab": {
        "subactionIndex": 243,
        "subactionName": "PlyDrmario5K_Share_ACTION_CatchDash_figatree",
        "totalFrames": 39,
        "iasa": null,
        "hitFrames": [
            {
                "start": 10,
                "end": 11,
                "hitboxes": [0]
            }
        ],
        "hitboxes": [
            {
                "damage": 0,
                "angle": 361,
                "kbGrowth": 100,
                "weightDepKb": 0,
                "hitboxInteraction": 2,
                "baseKb": 0,
                "element": "grab",
                "shieldDamage": 0,
                "hitGrounded": true,
                "hitAirborne": true
            }
        ]
    },
    "pummel": {
        "subactionIndex": 245,
        "subactionName": "PlyDrmario5K_Share_ACTION_CatchAttack_figatree",
        "totalFrames": 23,
        "iasa": null,
        "hitFrames": [
            {
                "start": 16,
                "end": 16,
                "hitboxes": [0]
            }
        ],
        "hitboxes": [
            {
                "damage": 3,
                "angle": 80,
                "kbGrowth": 100,
                "weightDepKb": 30,
                "hitboxInteraction": 1,
                "baseKb": 0,
                "element": "normal",
                "shieldDamage": 0,
                "hitGrounded": true,
                "hitAirborne": true
            }
        ]
    },
    "fthrow": {
        "subactionIndex": 247,
        "subactionName": "PlyDrmario5K_Share_ACTION_ThrowF_figatree",
        "totalFrames": 27,
        "iasa": null,
        "throw": {
            "damage": 9,
            "angle": 45,
            "kbGrowth": 72,
            "weightDepKb": 0,
            "baseKb": 15,
            "element": 0
        },
        "hitFrames": [],
        "hitboxes": []
    },
    "bthrow": {
        "subactionIndex": 248,
        "subactionName": "PlyDrmario5K_Share_ACTION_ThrowB_figatree",
        "totalFrames": 66,
        "iasa": null,
        "throw": {
            "damage": 12,
            "angle": 45,
            "kbGrowth": 72,
            "weightDepKb": 0,
            "baseKb": 20,
            "element": 0
        },
        "hitFrames": [],
        "hitboxes": []
    },
    "uthrow": {
        "subactionIndex": 249,
        "subactionName": "PlyDrmario5K_Share_ACTION_ThrowHi_figatree",
        "totalFrames": 39,
        "iasa": null,
        "throw": {
            "damage": 8,
            "angle": 90,
            "kbGrowth": 80,
            "weightDepKb": 0,
            "baseKb": 17,
            "element": 8
        },
        "hitFrames": [],
        "hitboxes": []
    },
    "nspecial": {
        "start": 14,
        "end": 89,
        "totalFrames": 43,
        "baseDamages": [8]
    },
    "nspecial_air": {
        "start": 14,
        "end": 89,
        "totalFrames": 43,
        "baseDamages": [8]
    },
    "sspecial": {
        "start": 12,
        "end": 14,
        "totalFrames": 35,
        "baseDamages": [12, 10]
    },
    "sspecial_air": {
        "start": 12,
        "end": 14,
        "totalFrames": 35,
        "baseDamages": [12, 10]
    },
    "uspecial": {
        "start": 3,
        "end": 21,
        "totalFrames": 37,
        "baseDamages": [5, 2],
        "landingLag": 30,
        "LFSLag": 30
    },
    "uspecial_air": {
        "start": 3,
        "end": 21,
        "totalFrames": 37,
        "baseDamages": [5, 2],
        "landingLag": 30,
        "LFSLag": 30
    },
    "dspecial": {
        "start": 8,
        "end": 39,
        "totalFrames": 79,
        "baseDamages": [4, 3, 2]
    },
    "dspecial_air": {
        "start": 8,
        "end": 39,
        "totalFrames": 79,
        "baseDamages": [4, 3, 2]
    }
}
