{
    "jab1": {
        "subactionIndex": 46,
        "subactionName": "PlyEmblem5K_Share_ACTION_Attack11_figatree",
        "totalFrames": 31,
        "iasa": 26,
        "hitFrames": [
            {
                "start": 4,
                "end": 7,
                "hitboxes": [0, 1, 2]
            }
        ],
        "hitboxes": [
            {
                "damage": 5,
                "angle": 361,
                "kbGrowth": 60,
                "weightDepKb": 0,
                "hitboxInteraction": 3,
                "baseKb": 30,
                "element": "slash",
                "shieldDamage": 0,
                "hitGrounded": true,
                "hitAirborne": true
            },
            {
                "damage": 6,
                "angle": 361,
                "kbGrowth": 60,
                "weightDepKb": 0,
                "hitboxInteraction": 3,
                "baseKb": 30,
                "element": "slash",
                "shieldDamage": 0,
                "hitGrounded": true,
                "hitAirborne": true
            },
            {
                "damage": 3,
                "angle": 361,
                "kbGrowth": 60,
                "weightDepKb": 0,
                "hitboxInteraction": 3,
                "baseKb": 5,
                "element": "normal",
                "shieldDamage": 0,
                "hitGrounded": true,
                "hitAirborne": true
            }
        ]
    },
    "jab2": null,
    "jab3": null,
    "rapidjabs_start": null,
    "rapidjabs_loop": null,
    "rapidjabs_end": null,
    "dashattack": {
        "subactionIndex": 52,
        "subactionName": "PlyEmblem5K_Share_ACTION_AttackDash_figatree",
        "totalFrames": 57,
        "iasa": 40,
        "hitFrames": [
            {
                "start": 12,
                "end": 15,
                "hitboxes": [0, 1]
            }
        ],
        "hitboxes": [
            {
                "damage": 12,
                "angle": 110,
                "kbGrowth": 55,
                "weightDepKb": 0,
                "hitboxInteraction": 3,
                "baseKb": 70,
                "element": "slash",
                "shieldDamage": 0,
                "hitGrounded": true,
                "hitAirborne": true
            },
            {
                "damage": 6,
                "angle": 361,
                "kbGrowth": 60,
                "weightDepKb": 0,
                "hitboxInteraction": 3,
                "baseKb": 35,
                "element": "normal",
                "shieldDamage": 0,
                "hitGrounded": true,
                "hitAirborne": true
            }
        ]
    },
    "ftilt_h": null,
    "ftilt_mh": null,
    "ftilt_m": {
        "subactionIndex": 55,
        "subactionName": "PlyEmblem5K_Share_ACTION_AttackS31_figatree",
        "totalFrames": 40,
        "iasa": 40,
        "hitFrames": [
            {
                "start": 9,
                "end": 13,
                "hitboxes": [0, 1, 2]
            }
        ],
        "hitboxes": [
            {
                "damage": 10,
                "angle": 361,
                "kbGrowth": 70,
                "weightDepKb": 0,
                "hitboxInteraction": 3,
                "baseKb": 60,
                "element": "slash",
                "shieldDamage": 0,
                "hitGrounded": true,
                "hitAirborne": true
            },
            {
                "damage": 12,
                "angle": 361,
                "kbGrowth": 70,
                "weightDepKb": 0,
                "hitboxInteraction": 3,
                "baseKb": 60,
                "element": "slash",
                "shieldDamage": 0,
                "hitGrounded": true,
                "hitAirborne": true
            },
            {
                "damage": 7,
                "angle": 361,
                "kbGrowth": 70,
                "weightDepKb": 0,
                "hitboxInteraction": 3,
                "baseKb": 30,
                "element": "normal",
                "shieldDamage": 0,
                "hitGrounded": true,
                "hitAirborne": true
            }
        ]
    },
    "ftilt_ml": null,
    "ftilt_l": null,
    "utilt": {
        "subactionIndex": 58,
        "subactionName": "PlyEmblem5K_Share_ACTION_AttackHi3_figatree",
        "totalFrames": 45,
        "iasa": 40,
        "hitFrames": [
            {
                "start": 7,
                "end": 9,
                "hitboxes": [0, 1, 2, 3]
            },
            {
                "start": 10,
                "end": 13,
                "hitboxes": [3, 4, 5, 6]
            }
        ],
        "hitboxes": [
            {
                "damage": 8,
                "angle": 110,
                "kbGrowth": 120,
                "weightDepKb": 0,
                "hitboxInteraction": 3,
                "baseKb": 35,
                "element": "slash",
                "shieldDamage": 0,
                "hitGrounded": true,
                "hitAirborne": true
            },
            {
                "damage": 9,
                "angle": 110,
                "kbGrowth": 118,
                "weightDepKb": 0,
                "hitboxInteraction": 3,
                "baseKb": 35,
                "element": "slash",
                "shieldDamage": 0,
                "hitGrounded": true,
                "hitAirborne": true
            },
            {
                "damage": 10,
                "angle": 110,
                "kbGrowth": 116,
                "weightDepKb": 0,
                "hitboxInteraction": 3,
                "baseKb": 35,
                "element": "slash",
                "shieldDamage": 0,
                "hitGrounded": true,
                "hitAirborne": true
            },
            {
                "damage": 6,
                "angle": 361,
                "kbGrowth": 100,
                "weightDepKb": 0,
                "hitboxInteraction": 3,
                "baseKb": 20,
                "element": "normal",
                "shieldDamage": 0,
                "hitGrounded": true,
                "hitAirborne": true
            },
            {
                "damage": 8,
                "angle": 85,
                "kbGrowth": 120,
                "weightDepKb": 0,
                "hitboxInteraction": 3,
                "baseKb": 35,
                "element": "slash",
                "shieldDamage": 0,
                "hitGrounded": true,
                "hitAirborne": true
            },
            {
                "damage": 9,
                "angle": 85,
                "kbGrowth": 118,
                "weightDepKb": 0,
                "hitboxInteraction": 3,
                "baseKb": 35,
                "element": "slash",
                "shieldDamage": 0,
                "hitGrounded": true,
                "hitAirborne": true
            },
            {
                "damage": 10,
                "angle": 85,
                "kbGrowth": 116,
                "weightDepKb": 0,
                "hitboxInteraction": 3,
                "baseKb": 35,
                "element": "slash",
                "shieldDamage": 0,
                "hitGrounded": true,
                "hitAirborne": true
            }
        ]
    },
    "dtilt": {
        "subactionIndex": 59,
        "subactionName": "PlyEmblem5K_Share_ACTION_AttackLw3_figatree",
        "totalFrames": 57,
        "iasa": 20,
        "hitFrames": [
            {
                "start": 8,
                "end": 10,
                "hitboxes": [0, 1, 2]
            }
        ],
        "hitboxes": [
            {
                "damage": 10,
                "angle": 80,
                "kbGrowth": 40,
                "weightDepKb": 0,
                "hitboxInteraction": 3,
                "baseKb": 90,
                "element": "slash",
                "shieldDamage": 0,
                "hitGrounded": true,
                "hitAirborne": true
            },
            {
                "damage": 12,
                "angle": 80,
                "kbGrowth": 40,
                "weightDepKb": 0,
                "hitboxInteraction": 3,
                "baseKb": 90,
                "element": "slash",
                "shieldDamage": 0,
                "hitGrounded": true,
                "hitAirborne": true
            },
            {
                "damage": 6,
                "angle": 80,
                "kbGrowth": 40,
                "weightDepKb": 0,
                "hitboxInteraction": 3,
                "baseKb": 70,
                "element": "normal",
                "shieldDamage": 0,
                "hitGrounded": true,
                "hitAirborne": true
            }
        ]
    },
    "fsmash_h": null,
    "fsmash_mh": null,
    "fsmash_m": {
        "subactionIndex": 62,
        "subactionName": "PlyEmblem5K_Share_ACTION_AttackS4_figatree",
        "totalFrames": 57,
        "chargeFrame": 3,
        "iasa": 54,
        "hitFrames": [
            {
                "start": 12,
                "end": 14,
                "hitboxes": [0, 1]
            }
        ],
        "hitboxes": [
            {
                "damage": 20,
                "angle": 361,
                "kbGrowth": 65,
                "weightDepKb": 0,
                "hitboxInteraction": 3,
                "baseKb": 80,
                "element": "slash",
                "shieldDamage": 0,
                "hitGrounded": true,
                "hitAirborne": true
            },
            {
                "damage": 12,
                "angle": 361,
                "kbGrowth": 65,
                "weightDepKb": 0,
                "hitboxInteraction": 3,
                "baseKb": 30,
                "element": "normal",
                "shieldDamage": 0,
                "hitGrounded": true,
                "hitAirborne": true
            }
        ]
    },
    "fsmash_ml": null,
    "fsmash_l": null,
    "usmash": {
        "subactionIndex": 66,
        "subactionName": "PlyEmblem5K_Share_ACTION_AttackHi4_figatree",
        "totalFrames": 62,
        "chargeFrame": 8,
        "iasa": 46,
        "hitFrames": [
            {
                "start": 15,
                "end": 16,
                "hitboxes": [0, 1]
            },
            {
                "start": 17,
                "end": 18,
                "hitboxes": [0, 1]
            },
            {
                "start": 19,
                "end": 20,
                "hitboxes": [0, 1]
            },
            {
                "start": 21,
                "end": 22,
                "hitboxes": [0, 1]
            },
            {
                "start": 23,
                "end": 24,
                "hitboxes": [0, 1]
            },
            {
                "start": 25,
                "end": 26,
                "hitboxes": [2]
            }
        ],
        "hitboxes": [
            {
                "damage": 2,
                "angle": 98,
                "kbGrowth": 100,
                "weightDepKb": 120,
                "hitboxInteraction": 3,
                "baseKb": 0,
                "element": "fire",
                "shieldDamage": 0,
                "hitGrounded": true,
                "hitAirborne": true
            },
            {
                "damage": 2,
                "angle": 259,
                "kbGrowth": 100,
                "weightDepKb": 120,
                "hitboxInteraction": 3,
                "baseKb": 0,
                "element": "fire",
                "shieldDamage": 0,
                "hitGrounded": true,
                "hitAirborne": true
            },
            {
                "damage": 10,
                "angle": 90,
                "kbGrowth": 90,
                "weightDepKb": 0,
                "hitboxInteraction": 3,
                "baseKb": 73,
                "element": "fire",
                "shieldDamage": 0,
                "hitGrounded": true,
                "hitAirborne": true
            }
        ]
    },
    "dsmash": {
        "subactionIndex": 67,
        "subactionName": "PlyEmblem5K_Share_ACTION_AttackLw4_figatree",
        "totalFrames": 74,
        "chargeFrame": 3,
        "iasa": 72,
        "hitFrames": [
            {
                "start": 6,
                "end": 8,
                "hitboxes": [0, 1]
            },
            {
                "start": 24,
                "end": 26,
                "hitboxes": [2, 3]
            }
        ],
        "hitboxes": [
            {
                "damage": 21,
                "angle": 75,
                "kbGrowth": 70,
                "weightDepKb": 0,
                "hitboxInteraction": 3,
                "baseKb": 42,
                "element": "slash",
                "shieldDamage": 0,
                "hitGrounded": true,
                "hitAirborne": true
            },
            {
                "damage": 14,
                "angle": 361,
                "kbGrowth": 100,
                "weightDepKb": 0,
                "hitboxInteraction": 3,
                "baseKb": 15,
                "element": "normal",
                "shieldDamage": 0,
                "hitGrounded": true,
                "hitAirborne": true
            },
            {
                "damage": 16,
                "angle": 75,
                "kbGrowth": 68,
                "weightDepKb": 0,
                "hitboxInteraction": 3,
                "baseKb": 42,
                "element": "slash",
                "shieldDamage": 0,
                "hitGrounded": true,
                "hitAirborne": true
            },
            {
                "damage": 8,
                "angle": 361,
                "kbGrowth": 100,
                "weightDepKb": 0,
                "hitboxInteraction": 3,
                "baseKb": 15,
                "element": "normal",
                "shieldDamage": 0,
                "hitGrounded": true,
                "hitAirborne": true
            }
        ]
    },
    "nair": {
        "subactionIndex": 68,
        "subactionName": "PlyEmblem5K_Share_ACTION_AttackAirN_figatree",
        "totalFrames": 57,
        "iasa": 50,
        "autoCancelBefore": 7,
        "autoCancelAfter": 31,
        "landingLag": 20,
        "lcancelledLandingLag": 10,
        "hitFrames": [
            {
                "start": 7,
                "end": 8,
                "hitboxes": [0, 1]
            },
            {
                "start": 17,
                "end": 20,
                "hitboxes": [2, 3]
            }
        ],
        "hitboxes": [
            {
                "damage": 4,
                "angle": 100,
                "kbGrowth": 40,
                "weightDepKb": 0,
                "hitboxInteraction": 2,
                "baseKb": 30,
                "element": "slash",
                "shieldDamage": 0,
                "hitGrounded": true,
                "hitAirborne": true
            },
            {
                "damage": 4,
                "angle": 90,
                "kbGrowth": 40,
                "weightDepKb": 0,
                "hitboxInteraction": 2,
                "baseKb": 30,
                "element": "normal",
                "shieldDamage": 0,
                "hitGrounded": true,
                "hitAirborne": true
            },
            {
                "damage": 8,
                "angle": 361,
                "kbGrowth": 80,
                "weightDepKb": 0,
                "hitboxInteraction": 3,
                "baseKb": 50,
                "element": "slash",
                "shieldDamage": 0,
                "hitGrounded": true,
                "hitAirborne": true
            },
            {
                "damage": 6,
                "angle": 361,
                "kbGrowth": 80,
                "weightDepKb": 0,
                "hitboxInteraction": 3,
                "baseKb": 50,
                "element": "normal",
                "shieldDamage": 0,
                "hitGrounded": true,
                "hitAirborne": true
            }
        ]
    },
    "fair": {
        "subactionIndex": 69,
        "subactionName": "PlyEmblem5K_Share_ACTION_AttackAirF_figatree",
        "totalFrames": 38,
        "iasa": 35,
        "autoCancelBefore": 1,
        "autoCancelAfter": 29,
        "landingLag": 20,
        "lcancelledLandingLag": 10,
        "hitFrames": [
            {
                "start": 5,
                "end": 7,
                "hitboxes": [0, 1]
            }
        ],
        "hitboxes": [
            {
                "damage": 8,
                "angle": 361,
                "kbGrowth": 70,
                "weightDepKb": 0,
                "hitboxInteraction": 3,
                "baseKb": 30,
                "element": "slash",
                "shieldDamage": 0,
                "hitGrounded": true,
                "hitAirborne": true
            },
            {
                "damage": 5,
                "angle": 361,
                "kbGrowth": 70,
                "weightDepKb": 0,
                "hitboxInteraction": 3,
                "baseKb": 10,
                "element": "normal",
                "shieldDamage": 0,
                "hitGrounded": true,
                "hitAirborne": true
            }
        ]
    },
    "bair": {
        "subactionIndex": 70,
        "subactionName": "PlyEmblem5K_Share_ACTION_AttackAirB_figatree",
        "totalFrames": 45,
        "iasa": 43,
        "autoCancelBefore": 1,
        "autoCancelAfter": 33,
        "landingLag": 24,
        "lcancelledLandingLag": 12,
        "hitFrames": [
            {
                "start": 8,
                "end": 10,
                "hitboxes": [0, 1]
            }
        ],
        "hitboxes": [
            {
                "damage": 9,
                "angle": 361,
                "kbGrowth": 70,
                "weightDepKb": 0,
                "hitboxInteraction": 3,
                "baseKb": 30,
                "element": "slash",
                "shieldDamage": 0,
                "hitGrounded": true,
                "hitAirborne": true
            },
            {
                "damage": 6,
                "angle": 361,
                "kbGrowth": 70,
                "weightDepKb": 0,
                "hitboxInteraction": 3,
                "baseKb": 10,
                "element": "normal",
                "shieldDamage": 0,
                "hitGrounded": true,
                "hitAirborne": true
            }
        ]
    },
    "uair": {
        "subactionIndex": 71,
        "subactionName": "PlyEmblem5K_Share_ACTION_AttackAirHi_figatree",
        "totalFrames": 52,
        "iasa": 49,
        "autoCancelBefore": 5,
        "autoCancelAfter": 29,
        "landingLag": 18,
        "lcancelledLandingLag": 9,
        "hitFrames": [
            {
                "start": 5,
                "end": 10,
                "hitboxes": [0, 1]
            }
        ],
        "hitboxes": [
            {
                "damage": 9,
                "angle": 80,
                "kbGrowth": 70,
                "weightDepKb": 0,
                "hitboxInteraction": 3,
                "baseKb": 20,
                "element": "slash",
                "shieldDamage": 0,
                "hitGrounded": true,
                "hitAirborne": true
            },
            {
                "damage": 6,
                "angle": 80,
                "kbGrowth": 70,
                "weightDepKb": 0,
                "hitboxInteraction": 3,
                "baseKb": 10,
                "element": "normal",
                "shieldDamage": 0,
                "hitGrounded": true,
                "hitAirborne": true
            }
        ]
    },
    "dair": {
        "subactionIndex": 72,
        "subactionName": "PlyEmblem5K_Share_ACTION_AttackAirLw_figatree",
        "totalFrames": 68,
        "iasa": 64,
        "autoCancelBefore": 7,
        "autoCancelAfter": 54,
        "landingLag": 32,
        "lcancelledLandingLag": 16,
        "hitFrames": [
            {
                "start": 7,
                "end": 10,
                "hitboxes": [0, 1, 2]
            }
        ],
        "hitboxes": [
            {
                "damage": 9,
                "angle": 361,
                "kbGrowth": 70,
                "weightDepKb": 0,
                "hitboxInteraction": 3,
                "baseKb": 40,
                "element": "slash",
                "shieldDamage": 0,
                "hitGrounded": true,
                "hitAirborne": true
            },
            {
                "damage": 9,
                "angle": 270,
                "kbGrowth": 70,
                "weightDepKb": 0,
                "hitboxInteraction": 3,
                "baseKb": 40,
                "element": "slash",
                "shieldDamage": 0,
                "hitGrounded": true,
                "hitAirborne": true
            },
            {
                "damage": 6,
                "angle": 90,
                "kbGrowth": 70,
                "weightDepKb": 0,
                "hitboxInteraction": 3,
                "baseKb": 40,
                "element": "normal",
                "shieldDamage": 0,
                "hitGrounded": true,
                "hitAirborne": true
            }
        ]
    },
    "grab": {
        "subactionIndex": 242,
        "subactionName": "PlyEmblem5K_Share_ACTION_Catch_figatree",
        "totalFrames": 29,
        "iasa": null,
        "hitFrames": [
            {
                "start": 6,
                "end": 7,
                "hitboxes": [0]
            }
        ],
        "hitboxes": [
            {
                "damage": 0,
                "angle": 361,
                "kbGrowth": 100,
                "weightDepKb": 0,
                "hitboxInteraction": 2,
                "baseKb": 0,
                "element": "grab",
                "shieldDamage": 0,
                "hitGrounded": true,
                "hitAirborne": true
            }
        ]
    },
    "dashgrab": {
        "subactionIndex": 243,
        "subactionName": "PlyEmblem5K_Share_ACTION_CatchDash_figatree",
        "totalFrames": 39,
        "iasa": null,
        "hitFrames": [
            {
                "start": 9,
                "end": 10,
                "hitboxes": [0]
            }
        ],
        "hitboxes": [
            {
                "damage": 0,
                "angle": 361,
                "kbGrowth": 100,
                "weightDepKb": 0,
                "hitboxInteraction": 2,
                "baseKb": 0,
                "element": "grab",
                "shieldDamage": 0,
                "hitGrounded": true,
                "hitAirborne": true
            }
        ]
    },
    "pummel": {
        "subactionIndex": 245,
        "subactionName": "PlyEmblem5K_Share_ACTION_CatchAttack_figatree",
        "totalFrames": 23,
        "iasa": null,
        "hitFrames": [
            {
                "start": 6,
                "end": 6,
                "hitboxes": [0]
            }
        ],
        "hitboxes": [
            {
                "damage": 3,
                "angle": 80,
                "kbGrowth": 100,
                "weightDepKb": 30,
                "hitboxInteraction": 1,
                "baseKb": 0,
                "element": "normal",
                "shieldDamage": 0,
                "hitGrounded": true,
                "hitAirborne": true
            }
        ]
    },
    "fthrow": {
        "subactionIndex": 247,
        "subactionName": "PlyEmblem5K_Share_ACTION_ThrowF_figatree",
        "totalFrames": 31,
        "iasa": null,
        "throw": {
            "damage": 5,
            "angle": 45,
            "kbGrowth": 45,
            "weightDepKb": 0,
            "baseKb": 17,
            "element": 8
        },
        "hitFrames": [],
        "hitboxes": []
    },
    "bthrow": {
        "subactionIndex": 248,
        "subactionName": "PlyEmblem5K_Share_ACTION_ThrowB_figatree",
        "totalFrames": 44,
        "iasa": null,
        "throw": {
            "damage": 5,
            "angle": 117,
            "kbGrowth": 45,
            "weightDepKb": 0,
            "baseKb": 17,
            "element": 8
        },
        "hitFrames": [],
        "hitboxes": []
    },
    "uthrow": {
        "subactionIndex": 249,
        "subactionName": "PlyEmblem5K_Share_ACTION_ThrowHi_figatree",
        "totalFrames": 44,
        "iasa": null,
        "throw": {
            "damage": 5,
            "angle": 97,
            "kbGrowth": 130,
            "weightDepKb": 0,
            "baseKb": 15,
            "element": 0
        },
        "hitFrames": [],
        "hitboxes": []
    },
    "dthrow": {
        "subactionIndex": 250,
        "subactionName": "PlyEmblem5K_Share_ACTION_ThrowLw_figatree",
        "totalFrames": 42,
        "iasa": null,
        "throw": {
            "damage": 6,
            "angle": 120,
            "kbGrowth": 60,
            "weightDepKb": 0,
            "baseKb": 16,
            "element": 4
        },
        "hitFrames": [],
        "hitboxes": []
    },
    "nspecial": {
        "start": 16,
        "end": 21,
        "totalFrames": 45,
        "baseDamages": [50, 6]
    },
    "uspecial": {
        "start": 9,
        "end": 21,
        "totalFrames": 48,
        "baseDamages": [5, 1],
        "landingLag": 30,
        "LFSLag": 30
    },
    "dspecial": {
        "start": 8,
        "end": 20,
        "totalFrames": 59,
        "baseDamages": [0]
    }
}
